<?xml version="1.0" encoding="utf-8"?>
<svg version="1.1" id="Layer_1"
xmlns="http://www.w3.org/2000/svg"
xmlns:xlink="http://www.w3.org/1999/xlink"
width="75px" height="75px"
xml:space="preserve">
<g id="PathID_1" transform="matrix(-0.520481, -4.55019e-008, 4.55019e-008, -0.520481, 37.3, 35.9)" opacity="1">
<path style="fill:#081B42;fill-opacity:1" d="M28.15 -16.1L69.5 15.6L17.45 16.95L0.1 66.15L-17.35 16.95L-69.5 15.6L-52.2 2L-28.05 -16.1L-42.95 -66.1L0.1 -36.5L42.95 -66.1L28.15 -16.1" />
</g>
<g id="PathID_2" transform="matrix(-0.520481, -4.55019e-008, 4.55019e-008, -0.520481, 37.3, 35.9)" opacity="1">
</g>
<g id="PathID_3" transform="matrix(-0.336404, -2.94094e-008, 2.94094e-008, -0.336404, 37.1, 36.7)" opacity="1">
<path style="fill:#FFFFFF;fill-opacity:1" d="M28.15 -16.1L69.5 15.6L17.45 16.95L0.1 66.15L-17.35 16.95L-69.5 15.6L-52.2 2L-28.05 -16.1L-42.95 -66.1L0.1 -36.5L42.95 -66.1L28.15 -16.1" />
</g>
<g id="PathID_4" transform="matrix(-0.336404, -2.94094e-008, 2.94094e-008, -0.336404, 37.1, 36.7)" opacity="1">
</g>
<g id="PathID_5" transform="matrix(0.441655, 0, 0, 0.477946, 107.75, -47.8)" opacity="1">
<path style="fill:#081B42;fill-opacity:1" d="M197.95 171.9Q190.85 184.75 178.35 192.55Q165.65 200.15 149.25 200.15Q133.6 200.15 120.5 192.55Q108.05 184.75 100.45 171.9L108.05 171.9Q114.9 182.4 125.65 188.3Q136.55 194.15 149.25 194.15Q162.7 194.15 173.85 188.3Q184.6 182.4 190.85 171.9L197.95 171.9M179.95 153.65Q181.65 156.25 181.65 158.8Q181.65 161.1 179.95 163.8Q177.75 165.75 175.05 165.75Q171.75 165.75 169.8 163.8Q167.6 161.1 167.6 158.8Q167.6 156.25 169.8 153.65Q171.75 152.7 175.05 152.7Q177.75 152.7 179.95 153.65M212 149L87.7 149L87.7 149.6Q87.7 173.85 106.05 191.95Q124.05 208.6 150.25 208.6Q176.05 208.6 194.4 191.95Q212 173.85 212 149.6L212 149M229.35 149.6Q229.35 180.45 205.9 202.1Q182.9 225 150.25 225Q117.2 225 93.95 202.1Q70.7 180.45 70.7 149.6Q70.7 119.3 93.95 97Q117.2 75 150.25 75Q182.9 75 205.9 97Q229.35 119.3 229.35 149.6M115.5 163.8Q112.9 161.1 112.9 158.8Q112.9 156.25 115.5 153.65Q117.2 152.7 120.5 152.7Q123.45 152.7 125.65 153.65Q127.35 156.25 127.35 158.8Q127.35 161.1 125.65 163.8Q123.45 165.75 120.5 165.75Q117.2 165.75 115.5 163.8" />
</g>
<g id="PathID_6" transform="matrix(0.441655, 0, 0, 0.477946, 107.75, -47.8)" opacity="1">
</g>
<g id="PathID_7" transform="matrix(0.364478, 0, 0, 0.370913, 164.15, 14.35)" opacity="1">
<path style="fill:#FFFFFF;fill-opacity:1" d="M23.15 -10.7L14.7 -10.7L14.7 -2.25L11.3 -2.25L11.3 -10.7L2.85 -10.7L2.85 -14.1L11.3 -14.1L11.3 -22.5L14.7 -22.5L14.7 -14.1L23.15 -14.1L23.15 -11.2L23.15 -10.7" />
</g>
<g id="PathID_8" transform="matrix(0.364478, 0, 0, 0.370913, 164.15, 14.35)" opacity="1">
</g>
<g id="PathID_9" transform="matrix(0.364478, 0, 0, 0.370913, 173.65, 14.35)" opacity="1">
<path style="fill:#FFFFFF;fill-opacity:1" d="M7.95 -3.4L20.8 -3.4L20.8 1.55L19.1 0L4.5 0L4.5 -4.1Q4.5 -5.5 5.25 -6.65Q6 -7.8 7.2 -8.75Q8.45 -9.75 10 -10.6L13.4 -12.45Q14.25 -12.85 15.55 -13.8Q16.8 -14.75 17.95 -16Q19.1 -17.2 19.85 -18.6Q20.65 -20.05 20.65 -21.6Q20.65 -23.15 20.1 -24.5Q19.5 -25.9 18.45 -26.95Q17.4 -28 16 -28.6Q14.65 -29.2 13.05 -29.2Q11.55 -29.2 10.2 -28.65Q8.8 -28.05 7.75 -27.1Q6.7 -26.1 6.05 -24.8Q5.45 -23.55 5.45 -22.1L5.45 -21.55L7.5 -19.8L1.95 -19.8L2 -21.6Q2 -23.85 2.9 -25.85Q3.75 -27.9 5.25 -29.4Q6.7 -30.85 8.75 -31.75Q10.75 -32.6 13.05 -32.6Q15.3 -32.6 17.35 -31.75Q19.35 -30.85 20.85 -29.35Q22.35 -27.85 23.2 -25.85Q24.1 -23.8 24.1 -21.55Q24.1 -19.5 23.2 -17.65Q22.3 -15.75 20.95 -14.2Q19.55 -12.65 17.95 -11.4Q16.3 -10.15 14.8 -9.35L12 -8Q10.75 -7.4 9.85 -6.8Q8.95 -6.25 8.45 -5.6Q7.95 -5 7.95 -4.1L7.95 -3.4" />
</g>
<g id="PathID_10" transform="matrix(0.364478, 0, 0, 0.370913, 173.65, 14.35)" opacity="1">
</g>
<g id="PathID_11" transform="matrix(0.364478, 0, 0, 0.370913, 31.9, 45.85)" opacity="1">
<path style="fill:#081B42;fill-opacity:1" d="M7.95 -3.4L20.8 -3.4L20.8 1.55L19.1 0L4.5 0L4.5 -4.1Q4.5 -5.5 5.25 -6.65Q6 -7.8 7.2 -8.75Q8.45 -9.75 10 -10.6L13.4 -12.45Q14.25 -12.85 15.55 -13.8Q16.8 -14.75 17.95 -16Q19.1 -17.2 19.85 -18.6Q20.65 -20.05 20.65 -21.6Q20.65 -23.15 20.1 -24.5Q19.5 -25.9 18.45 -26.95Q17.4 -28 16 -28.6Q14.65 -29.2 13.05 -29.2Q11.55 -29.2 10.2 -28.65Q8.8 -28.05 7.75 -27.1Q6.7 -26.1 6.05 -24.8Q5.45 -23.55 5.45 -22.1L5.45 -21.55L7.5 -19.8L1.95 -19.8L2 -21.6Q2 -23.85 2.9 -25.85Q3.75 -27.9 5.25 -29.4Q6.7 -30.85 8.75 -31.75Q10.75 -32.6 13.05 -32.6Q15.3 -32.6 17.35 -31.75Q19.35 -30.85 20.85 -29.35Q22.35 -27.85 23.2 -25.85Q24.1 -23.8 24.1 -21.55Q24.1 -19.5 23.2 -17.65Q22.3 -15.75 20.95 -14.2Q19.55 -12.65 17.95 -11.4Q16.3 -10.15 14.8 -9.35L12 -8Q10.75 -7.4 9.85 -6.8Q8.95 -6.25 8.45 -5.6Q7.95 -5 7.95 -4.1L7.95 -3.4" />
</g>
<g id="PathID_12" transform="matrix(0.364478, 0, 0, 0.370913, 31.9, 45.85)" opacity="1">
</g>
</svg>
